Assignment 6
…
set.seed(123)

Load and restrict dataset

vars.keep = c("Age", "Race1", "Education", "HHIncome", "Weight",
               "Height", "Pulse", "Diabetes", "BMI", "PhysActive", "Smoke100")

nhanes.df = NHANES |>
  select(all_of(vars.keep)) |>
  distinct() |>       # remove oversampled duplicate rows from NHANES design
  drop_na()           # listwise deletion of rows with any missing values

nhanes.df

## # A tibble: 4,040 × 11
##      Age Race1  Education HHIncome Weight Height Pulse Diabetes   BMI PhysActive
##    <int> <fct>  <fct>     <fct>     <dbl>  <dbl> <int> <fct>    <dbl> <fct>     
##  1    34 White  High Sch… 25000-3…   87.4   165.    70 No        32.2 No        
##  2    49 White  Some Col… 35000-4…   86.7   168.    86 No        30.6 No        
##  3    45 White  College … 75000-9…   75.7   167.    62 No        27.2 Yes       
##  4    66 White  Some Col… 25000-3…   68     170.    60 No        23.7 Yes       
##  5    58 White  College … more 99…   78.4   182.    62 No        23.7 Yes       
##  6    54 White  9 - 11th… 65000-7…   74.7   169.    76 No        26.0 Yes       
##  7    58 Mexic… High Sch… 75000-9…   57.5   148.    94 No        26.2 Yes       
##  8    50 White  Some Col… 15000-1…   84.1   178.    74 No        26.6 Yes       
##  9    33 White  High Sch… 25000-3…   93.8   181.    96 No        28.5 No        
## 10    60 White  High Sch… 15000-1…   74.6   170.    84 No        25.8 No        
## # ℹ 4,030 more rows
## # ℹ 1 more variable: Smoke100 <fct>
…
